(module OLED_0.91in_I2C (layer F.Cu) (tedit 5EEFCA65)
  (fp_text reference REF** (at 0 15.1765) (layer F.SilkS)
    (effects (font (size 1 1) (thickness 0.15)))
  )
  (fp_text value "OLED 0.91in I2C" (at 0 13.4065) (layer F.Fab)
    (effects (font (size 1 1) (thickness 0.15)))
  )
  (fp_line (start -6.5 0) (end -6.5 38) (layer F.SilkS) (width 0.12))
  (fp_line (start -6.5 38) (end 6.5 38) (layer F.SilkS) (width 0.12))
  (fp_line (start 6.5 0) (end 6.5 38) (layer F.SilkS) (width 0.12))
  (fp_line (start 6.5 0) (end -6.5 0) (layer F.SilkS) (width 0.12))
  (fp_text user GND (at -3.81 4.2545 90) (layer F.SilkS)
    (effects (font (size 1 1) (thickness 0.15)))
  )
  (fp_text user VCC (at -1.27 4.2545 90) (layer F.SilkS)
    (effects (font (size 1 1) (thickness 0.15)))
  )
  (fp_text user SCL (at 1.27 4.2545 90) (layer F.SilkS)
    (effects (font (size 1 1) (thickness 0.15)))
  )
  (fp_text user SDA (at 3.81 4.2545 90) (layer F.SilkS)
    (effects (font (size 1 1) (thickness 0.15)))
  )
  (pad 1 thru_hole circle (at -3.81 1.7145) (size 1.524 1.524) (drill 0.762) (layers *.Cu *.Mask))
  (pad 2 thru_hole circle (at -1.27 1.7145) (size 1.524 1.524) (drill 0.762) (layers *.Cu *.Mask))
  (pad 3 thru_hole circle (at 1.27 1.7145) (size 1.524 1.524) (drill 0.762) (layers *.Cu *.Mask))
  (pad 4 thru_hole circle (at 3.81 1.7145) (size 1.524 1.524) (drill 0.762) (layers *.Cu *.Mask))
  (model "OLED 128x32 Display.step"
    (offset (xyz -6 -0.3 2.54))
    (scale (xyz 1 1 1))
    (rotate (xyz 0 0 90))
  )
)
