(module Symbol_CC-Attribution_Silk_Small (layer F.Cu) (tedit 5EE4D564)
  (descr "Symbol, CC-Share Alike, Copper Top, Small,")
  (tags "Symbol, CC-Share Alike, Copper Top, Small,")
  (attr virtual)
  (fp_text reference REF** (at 0.59944 -7.29996) (layer F.Fab)
    (effects (font (size 1 1) (thickness 0.15)))
  )
  (fp_text value Symbol_CC-Attribution_Silk_Small (at 0.59944 8.001) (layer F.Fab)
    (effects (font (size 1 1) (thickness 0.15)))
  )
  (fp_line (start 0.59944 -2.4003) (end 0 -2.49936) (layer F.SilkS) (width 0.381))
  (fp_line (start 1.00076 -2.30124) (end 0.59944 -2.4003) (layer F.SilkS) (width 0.381))
  (fp_line (start 1.50114 -1.99898) (end 1.00076 -2.30124) (layer F.SilkS) (width 0.381))
  (fp_line (start 1.99898 -1.50114) (end 1.50114 -1.99898) (layer F.SilkS) (width 0.381))
  (fp_line (start 2.30124 -1.00076) (end 1.99898 -1.50114) (layer F.SilkS) (width 0.381))
  (fp_line (start 2.49936 -0.39878) (end 2.30124 -1.00076) (layer F.SilkS) (width 0.381))
  (fp_line (start 2.49936 0.20066) (end 2.49936 -0.39878) (layer F.SilkS) (width 0.381))
  (fp_line (start 2.4003 0.8001) (end 2.49936 0.20066) (layer F.SilkS) (width 0.381))
  (fp_line (start 1.99898 1.50114) (end 2.4003 0.8001) (layer F.SilkS) (width 0.381))
  (fp_line (start 1.50114 1.99898) (end 1.99898 1.50114) (layer F.SilkS) (width 0.381))
  (fp_line (start 0.89916 2.30124) (end 1.50114 1.99898) (layer F.SilkS) (width 0.381))
  (fp_line (start 0.29972 2.49936) (end 0.89916 2.30124) (layer F.SilkS) (width 0.381))
  (fp_line (start -0.50038 2.49936) (end 0.29972 2.49936) (layer F.SilkS) (width 0.381))
  (fp_line (start -1.19888 2.19964) (end -0.50038 2.49936) (layer F.SilkS) (width 0.381))
  (fp_line (start -1.69926 1.80086) (end -1.19888 2.19964) (layer F.SilkS) (width 0.381))
  (fp_line (start -2.30124 1.09982) (end -1.69926 1.80086) (layer F.SilkS) (width 0.381))
  (fp_line (start -2.49936 0.29972) (end -2.30124 1.09982) (layer F.SilkS) (width 0.381))
  (fp_line (start -2.49936 -0.29972) (end -2.49936 0.29972) (layer F.SilkS) (width 0.381))
  (fp_line (start -2.4003 -0.8001) (end -2.49936 -0.29972) (layer F.SilkS) (width 0.381))
  (fp_line (start -2.19964 -1.19888) (end -2.4003 -0.8001) (layer F.SilkS) (width 0.381))
  (fp_line (start -1.69926 -1.80086) (end -2.19964 -1.19888) (layer F.SilkS) (width 0.381))
  (fp_line (start -1.19888 -2.19964) (end -1.69926 -1.80086) (layer F.SilkS) (width 0.381))
  (fp_line (start -0.70104 -2.4003) (end -1.19888 -2.19964) (layer F.SilkS) (width 0.381))
  (fp_line (start -0.09906 -2.49936) (end -0.70104 -2.4003) (layer F.SilkS) (width 0.381))
  (fp_line (start 0 -2.49936) (end -0.09906 -2.49936) (layer F.SilkS) (width 0.381))
  (fp_circle (center 0 -1.69926) (end 0.09906 -1.39954) (layer F.SilkS) (width 0.381))
  (fp_line (start -0.8001 0.20066) (end -0.8001 -1.00076) (layer F.SilkS) (width 0.381))
  (fp_line (start 0.70104 0.20066) (end -0.8001 0.20066) (layer F.SilkS) (width 0.381))
  (fp_line (start 0.70104 -1.00076) (end 0.70104 0.20066) (layer F.SilkS) (width 0.381))
  (fp_line (start -0.8001 -1.00076) (end 0.70104 -1.00076) (layer F.SilkS) (width 0.381))
  (fp_line (start -0.29972 1.80086) (end 0.20066 1.80086) (layer F.SilkS) (width 0.381))
  (fp_line (start -0.29972 0.29972) (end -0.29972 1.80086) (layer F.SilkS) (width 0.381))
  (fp_line (start 0.29972 1.80086) (end 0.29972 0.20066) (layer F.SilkS) (width 0.381))
  (fp_line (start 0.09906 1.80086) (end 0.29972 1.80086) (layer F.SilkS) (width 0.381))
  (fp_line (start 0 0.29972) (end 0 1.6002) (layer F.SilkS) (width 0.381))
  (fp_line (start -0.8001 -0.09906) (end 0.50038 -0.09906) (layer F.SilkS) (width 0.381))
  (fp_line (start 0.50038 -0.39878) (end -0.70104 -0.39878) (layer F.SilkS) (width 0.381))
  (fp_line (start -0.70104 -0.70104) (end 0.59944 -0.70104) (layer F.SilkS) (width 0.381))
  (fp_line (start 0 -1.89992) (end 0 -1.50114) (layer F.SilkS) (width 0.381))
)
